== ARTICLE XVII. DEPARTMENT OF ENGINEERING AND PUBLIC WORKS

include::article-017/017.00.asc[]

include::article-017/017.01.asc[]

include::article-017/017.02.asc[]

include::article-017/017.03.asc[]

include::article-017/017.04.asc[]

include::article-017/017.05.asc[]
