[[code-section-005-07, 5.7]]
=== Section 5.07. Bureau of purchase, purchasing agent, powers and duties.footnote:[Amended by L.L. 2-2015.]

A. The purchasing objectives of the bureau of purchase are:
  1. To acquire quality goods and services for county departments to use in fulfilling their responsibilities.
  2. To ensure that these goods and services will be available at the proper time and place and in the appropriate quantity.
  3. To maximize the value of taxpayer funds in procuring goods and services.
B. The principles and standards of the bureau’s purchasing policy are:
  1. Schenectady County conducts its purchasing in accordance with the laws of New York state, the county charter, and the county administrative code. The purchasing guidelines follow the legal requirements established in these statutes.
  2. The county is responsible for providing a purchasing program that ensures fairness and integrity and that guards against favoritism, fraud and corruption.
  3. A central purchasing agent is responsible for county purchasing. The agent ensures that procurements are made in compliance with state and county laws and that the purchasing objectives in subdivision A of this section are met.
  4. The county seeks to fulfill its needs for goods and services through open competitive bidding wherever practical and possible. Information is readily available to potential bidders.
  5. The county encourages all segments of the business community, including businesses owned by minorities and women to participate in its purchasing program.
  6. In order to maximize purchasing power, the county purchasing agent negotiates and/or utilizes county-wide and New York state contracts to purchase goods and services whenever possible.
C. Purchasing rules and guidelines:
  1. The purchasing agent, as identified by biennial resolution pursuant to General Municipal Law § 104-b(2)(f), is responsible for administering the county's purchasing program.
  2. The purchasing agent's responsibilities include:
  a. Providing information and assistance to county departments, vendors, and the public.
  b. Soliciting, administering, advertising and opening all competitive bids.
  c. Negotiating and issuing purchase orders for items needed by county departments.
  d. Negotiating county-wide contracts for goods and services routinely used by county departments (and other municipalities, if applicable).
  e. Determining the classification of purchases.
  f. Establishing, implementing, and monitoring purchasing policies.
  g. The purchasing agent’s responsibilities under this section do not extend to the purchase or lease of real property.
  3. In order to promote efficiency and flexibility in the purchasing process, the county manager and the purchasing agent may allow departments to order merchandise directly with vendors approved under county or state contracts or with purchasing consortiums. The purchasing agent will provide departments with a listing of such vendors, items, and prices on a regular basis.
  4. The County Legislature shall, by biennial resolution, adopt policies and procedures for the procurement of bid and non-bid goods and services, pursuant to, and in compliance with, General Municipal Law § 104-b.
D. Specific purchasing requirements:
  1. Public works construction contracts exceeding two hundred thousand dollars ($200,000) may only be awarded to contractors and subcontractors that have an approved apprenticeship program as provided for in article 23 of the New York State Labor Law.
  2. In the case of an emergency situation, the Purchasing Agent may authorize expenditures below the legal competitive bid threshold without seeking quotes, upon receiving a written explanation of the emergency situation from the department head requesting the purchase. If the situation requires purchases or contracts which exceed the legal bid threshold, such purchase or contract shall be authorized only if the County Manager has authorized such expenditure by declaring the emergency situation in writing.
  3. No bid for materials, supplies, equipment or services may be accepted from or contract therefore awarded to any person who is in arrears to the county, upon debt or contract, or who has defaulted as surety or otherwise upon a contract or obligation to the county.footnote:[formerly subdivision 2 of section 5.07; redesignated by L.L. 2-2015.]
E. The purchasing agent shall maintain an inventory of all equipment purchased and owned by the county.footnote:[Formerly subdivision 3 of section 5.07; redesignated by L.L. 2-2015.]
F. Sale or lease of surplus, obsolete or unused supplies, materials and equipment.footnote:[Added by L.L. 6-1981, § 1; amended by L.L. 2-1994, § 1, L.L. 7-1995, § 1; formerly subdivision 4 of section 5.07; redesignated by L.L. 2-2015.]
  1. The purchasing agent may sell or lease surplus, obsolete or unused supplies, materials or equipment having an aggregate market value not in excess of five thousand dollars ($5,000) located in any storeroom or warehouse or not required by an agency of the county to the highest bidder at public auction or after the receipt of bids and after advertisement in at least 2 successive issues of a daily newspaper published in the County of Schenectady.
  2. Whenever in the opinion of the purchasing agent, the market value of such items mentioned in paragraph 1 of this subdivision does not exceed the sum of twenty-five hundred dollars ($2,500) he or she may sell or lease same to the highest responsible bidder without public advertisement. Bids on such items must be obtained from at least 3 bidders, whenever possible. If however, only one bid is submitted to the purchasing agent, the sale or lease shall be made at a price not less than the market value fixed by the purchasing agent.
  3. Surplus, obsolete or unused supplies, materials or equipment having an aggregate market value in excess of five thousand dollars ($5,000) may be sold or leased by the purchasing agent in accordance with the requirements of paragraph 1 of this subdivision only after authorization and approval of the legislature.
  4. All surplus obsolete or unused materials, with the exception of public records, supplies and equipment which in the opinion of the purchasing agent and the head of the department involved is not saleable and without monetary value may be destroyed or otherwise disposed of under the direction of the purchasing agent.
  5. Notwithstanding any provision herein to the contrary, the purchasing agent, after authorization and approval of the legislature, may sell, transfer or lease to or exchange with any public corporation, the State of New York or the government of the United States and any agency or department thereof, either without consideration or for such consideration and upon such terms and conditions as shall be approved by the legislature, any saleable surplus, obsolete or unused supplies, materials or equipment which has monetary value.
G. Participation by political subdivisions in county purchase contracts.footnote:[Added by L.L. 4-1984, § 1; formerly subdivision 5 of section 5.07; redesignated by L.L. 2-2015.]
  1. The purchasing agent may, upon written request of a political subdivision or other entity authorized by law (hereinafter referred to as political subdivision) include a provision in any county purchase contract of materials, supplies, equipment or apparatus that said political subdivision may make purchases directly from any vendor pursuant to said contract let by the purchasing agent.
  2. Each political subdivision shall accept sole responsibility for any payment to the vendor.
  3. Each political subdivision shall be responsible for audit and inspection of purchases so made.
  4. Political subdivisions purchasing under a county contract shall, when requested, within 30 days of such purchase, send a copy of the purchase order to the purchasing agent.
  5. Political subdivisions may also participate in other selected centralized contracts let by the purchasing agent subject to his or her approval, by filing their requirements for specific commodities through the use of requirement forms issued by the purchasing agent.
  6. When requirements have been submitted to the purchasing agent by a subdivision, no separate bids for the same requirements shall be sought nor purchases thereof shall be made by such entity. Since a formal award is made by the purchasing agent to the vendor based on the filed requirements, such a subdivision shall be bound by the centralized contract with the same force and effect as if it had contracted directly with the vendor.
  7. Political subdivisions may not withdraw requirements filed with the purchasing agent without obtaining his or her prior written approval.
  8. The purchasing agent may, upon the failure of a political subdivision to promptly and properly adhere to all contract terms, statutes, applicable rules and regulations and reasonable directions of the purchasing agent and good business practices including prompt payment for materials, equipment or supplies received, suspend such entity's privilege of purchasing through the county or may take such other action as the purchasing agent deems appropriate including but not limited to the imposition of special conditions and restrictions with regard to future purchases through the county of such entity.
  9. The purchasing agent may insert a clause in any bid specification and any county purchase contract of materials, supplies, equipment or apparatus that political subdivisions and other entities may make purchases directly from any vendor pursuant to said contract let by the purchasing agent.footnote:[Added by L.L. 2-2015.]
