[[code-section-009-06, 9.6]]
=== Section 9.06. Disposition of money or property found on deceased.

A. Money and other property found upon the body of the deceased, not required for the purposes of the investigation, shall be delivered to the commissioner of finance of the County of Schenectady.
B. Unless claimed in the meantime by the legal representatives of the deceased, articles held for the purposes of the investigation, except such writings of the deceased as may be relevant to the diagnosis, of means or manner of death, shall be delivered to the commissioner of finance of the County of Schenectady at the conclusion of the investigation.
C. Upon the delivery of the money to the commissioner of finance he or she must place it to the credit of the county.
D. If other property is delivered to the commissioner of finance, he or she must, within 1 year, sell it at public auction upon reasonable public notice, and must, in like manner, place the proceeds to the credit of the county.
E. If the money be demanded within 6 years by the legal representatives of the deceased, the commissioner of finance must pay it to them, after deducting the amount of expenses incurred in connection therewith, or it may be so paid at any time thereafter, upon the order of the legislature; provided, however, that such money may be so paid at any time upon written order of the judge of the surrogate court of the County of Schenectady.
F. Before auditing and allowing the account of the medical examiner, the legislature must require from him or her a statement in writing of any money or other property found upon persons whose deaths he or she has investigated, verified by his or her oath to the effect that the statement is true and that the money or property mentioned in it has been delivered to the legal representatives of the deceased, or to the commissioner of finance.
