[[codified-section-210-17, 210.17]]
=== Section 210.17. Jurisdiction and enforcement of violations and regulations.

A. The county court of the County of Schenectady, or the city court of the city of Schenectady, and the town courts and the village courts of the towns and villages, shall have jurisdiction over the enforcement of any violations of this law, and the county attorney or his or her assistants and deputies, shall prosecute.

B. Whenever any motor vehicle without driver is found parked or stopped in violation of any of the restrictions imposed by this local law, the duly designated county employee finding such vehicle shall take its registration number and may take any other information displayed on the vehicle which may identify its owner and user, and shall conspicuously affix to such vehicle a ticket notice in writing, on a form provided by the sheriff for the driver to pay a fine or plead not guilty by mail or in person, by a due date provided on the ticket, during the hours and at a place specified in the notice.

C. Receipt of a not guilty plea shall result in a trial notice being sent to the person or entity pleading not guilty and if not the owner, the registered owner shall also receive notice of trial.

D. If a violator of the restrictions on stopping, standing, parking or speeding under this local law does not pay the fine or plead not guilty by the due date provided for on the ticket notice, or fails to appear for trial, the director of facilities shall cause to be sent to the owner of the motor vehicle to which the notice was affixed, a letter or a citation informing the owner of the violation and warning of its responsibility for the fine that has been doubled for failure to respond by the due date, in an amount up to two hundred dollars ($200); and that if they do not pay the fine within 30 days by mail or in person during the hours and at a place specified in the letter or citation, the owner may be subject to a warrant and arrest, his or her vehicle may be towed, stored and or immobilized under the direction of the director of facilities or his or her designee, or the sheriff or his or her designee, and the owner's registration may be subject to suspension or non-renewal.

E. The facilities director or the sheriff shall have the option in the first instance to secure the issuance of a warrant for the owner's arrest, if a trial date is not kept, or if the fine is not paid or if a guilty plea is not received by the due date indicated on the notice during the hours and at a place specified on the notice left on the vehicle.

F. Any vehicle removed, immobilized or stored as herein provided shall be promptly released to its owner upon the payment of outstanding parking fines, the satisfaction of outstanding traffic warrants, and the payment of any impound fine or storage fees due thereon.

G. If the owner or violator does not respond to such letter or citation of warning within 30 days, the facilities director or the sheriff shall have the option of having a complaint entered against the owner and secure the issuance of a warrant for the owner's arrest; and the facilities director or the sheriff shall not, if a warrant is issued, accept fines or bails from any such owner, but the owner shall be entirely under the jurisdiction of the court.

H. In any prosecution charging a violation of this local law governing the standing, parking, or speeding of a vehicle, proof that the particular vehicle described in the complaint was in violation of any such local law, together with proof that the defendant named in the complaint was at the time of such violation the registered owner of such vehicle, shall constitute in evidence a prima facie presumption that the registered owner of such vehicle was the person who parked or placed such vehicle at the point where, and for the time during which, such violation occurred.

I. The sheriff or any peace officer assigned by the sheriff, the director of facilities and his or her authorized designees, are authorized to enforce these rules and regulations and prevent violations thereof.
