[[code-section-002-09, 2.9]]
Section 2.09. Size of county legislature, apportionment of seats.footnote:[Added by L.L. 8-2001; Amended by L.L. 5-2011; designated section 2.09 by L.L. 2-2015.]

A. Pursuant to section <<charter-section-002-04>> of the charter of the County of Schenectady, the legislature hereby declares the population of the County of Schenectady according to the federal decennial census is 154,727 persons.  The population of county legislative district 1 is 32,717; the population of county legislative district 2 is 33,418; the population of county legislative district 3 is 51,261, and the population of county legislative district 4 is 37,331.
B. Pursuant to the figures of the such decennial census, and section <<charter-section-002-04>> of the charter of the County of Schenectady, the County Legislature hereby determines, and until the County Legislature reapportions itself pursuant to the 2020 decennial census and section <<charter-section-002-04>> of the charter of the County of Schenectady, the County Legislature shall be composed of fifteen members as follows: three members from district one, three members from district two, five members from district three and four members from district four.
C. Pursuant to section <<charter-section-002-04>> of the charter of the County of Schenectady, the legislators from district one shall each cast 1.0572 votes each, the legislators from district two shall cast 1.0799 votes each, the legislators from district three shall cast 0.9939 votes each, and the legislators from district four shall cast 0.9048 votes each, such that the total of all votes shall be fifteen (15).
