[[code-section-019-00, 19.0]]
=== Section 19.00. Board of elections; certification of legislature.

A. Decisions by the board of elections pursuant to section <<charter-section-002-02>> of the charter shall be in writing and shall be delivered personally or by registered mail to all interested parties and/or their attorneys of record.
B. In its certification to the legislature as to the composition of that body, pursuant to section <<charter-section-002-04>>, subdivision B or <<charter-section-002-04>>, subdivision C of the charter, the board of elections shall cause to be delivered personally or by registered mail to the chairperson of the legislature, the clerk of the legislature, the county attorney, and the county manager, a full and complete review of the facts utilized as the basis for the certification, and the full mathematical calculations in connection therewith. Sufficient copies shall also be available to the public at the office of the board of elections.
C. In placing the correct number of members of the legislature in each of the legislative districts pursuant to section <<charter-section-002-04>>, subdivision D in the charter, the board of elections shall cause to be delivered, personally or by registered mail to the chairperson of the legislature, the clerk of the legislature, the county manager, and the county attorney, certified copies of its reapportionment of seats on the legislature. Sufficient copies of said certification shall also be available to the public at the office of the board of elections.
